{
  "unversionedId": "Bloc documentation/development/api",
  "id": "Bloc documentation/development/api",
  "title": "Rest API",
  "description": "blabla",
  "source": "@site/docs/Bloc documentation/development/api.md",
  "sourceDirName": "Bloc documentation/development",
  "slug": "/Bloc documentation/development/api",
  "permalink": "/Bloc documentation/development/api",
  "editUrl": "https://codeberg.org/coldwire/documentation/src/branch/main/docs/Bloc documentation/development/api.md",
  "tags": [],
  "version": "current",
  "sidebarPosition": 3,
  "frontMatter": {
    "sidebar_position": 3,
    "title": "Rest API"
  },
  "sidebar": "tutorialSidebar",
  "previous": {
    "title": "Introduction",
    "permalink": "/Bloc documentation/development/intro"
  }
}