{
  "unversionedId": "Bloc documentation/deployment/nomad-cluster",
  "id": "Bloc documentation/deployment/nomad-cluster",
  "title": "Deploy on a Nomad cluster",
  "description": "blabla",
  "source": "@site/docs/Bloc documentation/deployment/nomad-cluster.md",
  "sourceDirName": "Bloc documentation/deployment",
  "slug": "/Bloc documentation/deployment/nomad-cluster",
  "permalink": "/Bloc documentation/deployment/nomad-cluster",
  "editUrl": "https://codeberg.org/coldwire/documentation/src/branch/main/docs/Bloc documentation/deployment/nomad-cluster.md",
  "tags": [],
  "version": "current",
  "sidebarPosition": 4,
  "frontMatter": {
    "sidebar_position": 4,
    "title": "Deploy on a Nomad cluster"
  },
  "sidebar": "tutorialSidebar",
  "previous": {
    "title": "Install on a bare metal server",
    "permalink": "/Bloc documentation/deployment/bare-metal"
  },
  "next": {
    "title": "Introduction",
    "permalink": "/Bloc documentation/development/intro"
  }
}