{
  "unversionedId": "home",
  "id": "home",
  "title": "Tutorial Intro",
  "description": "Let's discover Docusaurus in less than 5 minutes.",
  "source": "@site/docs/home.md",
  "sourceDirName": ".",
  "slug": "/home",
  "permalink": "/docs/home",
  "editUrl": "https://codeberg.org/coldwire/documentation/src/branch/main/docs/home.md",
  "tags": [],
  "version": "current",
  "sidebarPosition": 1,
  "frontMatter": {
    "sidebar_position": 1
  },
  "sidebar": "tutorialSidebar",
  "next": {
    "title": "Create a Page",
    "permalink": "/docs/tutorial-basics/create-a-page"
  }
}