{
  "unversionedId": "stack/bonfire/events",
  "id": "stack/bonfire/events",
  "title": "Events",
  "description": "This page documents various incoming and outgoing events.",
  "source": "@site/docs/stack/bonfire/events.md",
  "sourceDirName": "stack/bonfire",
  "slug": "/stack/bonfire/events",
  "permalink": "/stack/bonfire/events",
  "editUrl": "https://github.com/revoltchat/documentation/blob/master/docs/stack/bonfire/events.md",
  "tags": [],
  "version": "current",
  "sidebarPosition": 2,
  "frontMatter": {
    "sidebar_position": 2
  },
  "sidebar": "tutorialSidebar",
  "previous": {
    "title": "Overview",
    "permalink": "/stack/bonfire/"
  },
  "next": {
    "title": "Establishing a connection",
    "permalink": "/stack/bonfire/establishing"
  }
}